…
Infractions Code Key for Dataset

The following dataset explains the codes for each infraction in the first column of the Total_Infractions dataset.

Infractions_Code

## # A tibble: 39 x 2
##    Code  Explanation                           
##    <chr> <chr>                                 
##  1 FBEA  Failure to bring excuse for absence   
##  2 FR15  Failure to report to 15 min detention 
##  3 TWO1  Receiving 2 15 min detentions in 24 hr
##  4 DC    Disorderly Conduct                    
##  5 DRES  Minor Dress Code                      
##  6 FRSP  Failure to return signed papers       
##  7 OTHE  Talking/Disrupting                    
##  8 UC    Unprepared for Class                  
##  9 TARD  Tardy for Class                       
## 10 CHEAT Cheating                              
## # … with 29 more rows
…
